<?xml version="1.0" encoding="utf-8"?>
<svg viewBox="0 0 500 500" xmlns="http://www.w3.org/2000/svg">
  <circle style="fill: rgb(216, 216, 216); stroke: rgb(0, 0, 0); stroke-width: 10px;" cx="196.05" cy="294.4" r="181.635"/>
  <line style="fill: rgb(216, 216, 216); stroke: rgb(0, 0, 0); stroke-width: 10px;" x1="333.678" y1="97.193" x2="460.479" y2="96.536"/>
  <line style="fill: rgb(216, 216, 216); stroke: rgb(0, 0, 0); stroke-width: 10px;" x1="333.747" y1="97.279" x2="460.548" y2="96.622" transform="matrix(0, -1, 1, 0, 300.197006, 494.098007)"/>
</svg>